{
  "availableEntryByParentKey": [{
    "mainMenu": "DETTES",
    "availableMenuId" : ["test-dettes", "dettes-result"]
  }, {
    "mainMenu": "CREANCE",
    "availableMenuId" : ["test-dettes"]
  }],

  "microFrontendMenuElement": [{
    "tooltip": "test-dettes",
    "label": "test-dettes",
    "routerUrl": "/dettes",
    "id": "test-dettes"
  }, {
    "tooltip": "dettes-result",
    "label": "dettes-result",
    "routerUrl": "/dettes/dettes-result/8965",
    "id": "dettes-result"
  }]
}
